{
  "phrases": {
    "shop": {
      "staticCards": "Статичные карты",
      "animatedCards": "Анимированные карты",
      "search": "Название",
      "sort": {
        "priceAscending": "Цена: по возрастанию",
        "priceDescending": "Цена: по убыванию",
        "alphabetical": "По алфавиту"
      },
      "unpurchasable": "Показать непокупаемые",
      "unowned": "Показать не приобритенные",
      "equipped": "НАДЕТО",
      "purchase": {
        "canAfford": {
          "title": "Приобретение :name:",
          "desc": "Вы уверены, что хотите приобрести :name: за :price:?",
          "yes": "Приобрести",
          "no": "Нет"
        },
        "cantAfford": {
          "title": "Приобретение :name:",
          "desc": "Вы не можете приобрести :name:, оно стоит :price:",
          "btn": "Понятно"
        }
      },
      "card": {
        "unpurchasable": "Непокупаемое",
        "level": "(ур.: :level:)",
        "popup": {
          "title": "Непокупаемое",
          "desc": "Эту карту нельзя приобрести",
          "btn": "Понятно"
        },
        "dontMeetRequirements": {
          "title": "Требуется ранг",
          "desc": "Вы не соответствуете требованию группы пользователя для этой карты.",
          "btn:": "Понятно"
        },
        "dontMeetLevel": {
          "title": "Требуется уровень",
          "desc": "Вы должны быть уроня :level: чтобы приобрести это.",
          "btn:": "Понятно"
        }
      }
    },
    "card": {
      "phrases": {
        "suicide": "Допустил ошибку",
        "world": "Это больно, а?",
        "player": "Вы были убиты"
      },
      "level": "Ур. :level:",
      "suicide": "Суицид",
      "world": "Мир",
      "dmg": "Вы нанесли :dealtDmg: урона за :dealtHits: и получили :receivedDmg: урона за :receivedHits:.",
      "hits": {
        "singular": "попадание",
        "plural": "попаданий"
      },
      "respawn": {
          "msg": "Возрождение через :time:",
          "skip": {
              "msg": "Нажмите :key: чтобы возродиться",
              "key": "SPACE"
          },
          "plural": "секунд",
          "singular": "секунду"
      }
    },
    "killfeed": {
      "dmg": "Вы нанесли :dealtDmg: урона за :dealtHits:.",
      "killed": "Вы убили",
      "level": "Уровень"
    }
  }
}