{
  "phrases": {
    "ui": {
      "tabs": {
        "standalone": {
          "flips": "Флипы",
          "history": "История",
          "stats": "Статистика"
        },
        "f4": {
          "flips": "ФЛИПЫ",
          "history": "ИСТОРИЯ",
          "stats": "СТАТИСТИКА"
        }
      },
      "flips": {
        "title": ":flips: активных коин-флипов",
        "createFlip": "Создать коин-флип",
        "maxFlipsReached": "У вас может быть максимум :number: коин-флипов!",
        "row": {
          "join": "Присоединиться",
          "delete": "Удалить",
          "cantAfford": "Вы не можете позволить себе войти в этот коин-флип! Вам нужно :number:"
        },
        "create": {
          "title": "Создать коин-флип",
          "howMuch": "Сколько бы вы хотели поставить?",
          "currency": "Валюта",
          "announceCreation": "Объявить о создании?",
          "announceWinner": "Объявить победителя?",
          "timeLimit": {
            "msg": "Лимит времени",
            "time": ":number: мин"
          },
          "create": "Создать",
          "no": "НЕТ",
          "yes": "ДА"
        },
        "game": {
           "countdown": "Коин-флип - флип через :number:",
           "flipping": "Коин-флип - флип в процессе",
           "blue": "Синий",
           "red": "Красный"
        }
      },
      "history": {
        "title": "Последкий коин-флип :flips:",
        "won": "ВЫИГРАЛ",
        "lost": "ПРОИГРАЛ"
      }
    },
    "chat": {
      "done": ":winner: выиграл :money: в коин-флип против :loser:",
      "created": ":creator: создал коин-флип с ставкой :money:",
      "createdNotification": "Создан коин-флип с ID :id:",
      "won": "Вы выиграли :money: в коин-флипе!",
      "deleted": {
        "timeLimit": "Ваш коин-флип с ID :id: достиг лимита времени. Вам вернули :money:",
        "user": "Вы удалили коин-флип с ID :id:. Вам вернули :money:"
      }
    }
  }
}